{
    "id": "extended-messaging",
    "name": "Extended Messaging",
    "description": "Module to extend messaging functionalities.",
    "version": "1.0.0",
    "humhub": {
        "minVersion": "1.16"
    },
    "keywords": ["messaging", "extension"],
    "screenshots": [],
    "homepage": "",
    "authors": [
        {
            "name": "Matías Reynolds",
            "email": "matias@spoa.dev",
            "homepage": "https://spoa.dev"
        }
    ],
    "licence": "AGPL-3.0-or-later"
}
